{
    "project_info": {
        "project_number": "30435427152629",
        "firebase_url": "https://my-drawer-ng-5fac2.firebaseio.com",
        "project_id": "my-drawer-ng-5fac2",
        "storage_bucket": "my-drawer-ng-5fac2.appspot.com"
    },
    "client": [
        {
        "client_info": {
                "mobilesdk_app_id": "1:314480398453:android:d0173c3338134cb9b7683c",
                "android_client_info": {
                "package_name": "org.nativescript.my-drawer-ng"
            }
        },
        "oauth_client": [
            {
                "client_id": "314480398453-fuckahseg34fabenr35c.apps.googleusercontent.com",
                "client_type": 3
            }
        ],
        "api_key": [
            {
                "current_key": "AIzaSyB9FaLOUQyjrlTuIwiaedDB1i2_eVcHjBc"
            }
        ],
        "services": {
            "analytics_service": {
                "status": 1
            },
            "appinvite_service": {
            "status": 1,
            "other_platform_oauth_client": []
            }
        }
    }
    ]
}